temperature,humidity,overcast,rainy,sunny,windy,play
85,85,0.0,0.0,1.0,0,0
80,90,0.0,0.0,1.0,1,0
83,86,1.0,0.0,0.0,0,1
70,96,0.0,1.0,0.0,0,1
68,80,0.0,1.0,0.0,0,1
65,70,0.0,1.0,0.0,1,0
64,65,1.0,0.0,0.0,1,1
72,95,0.0,0.0,1.0,0,0
69,70,0.0,0.0,1.0,0,1
75,80,0.0,1.0,0.0,0,1
75,70,0.0,0.0,1.0,1,1
72,90,1.0,0.0,0.0,1,1
81,75,1.0,0.0,0.0,0,1
71,91,0.0,1.0,0.0,1,0
